{
  "title": "Six Average Leaf Prism",
  "description": "Unable to retrieve a description.",
  "openByDefault": true,
  "charts": [
    {
      "title": "Six Average Leaf Prism",
      "type": "boxAndWhisker"
    }
  ]
}